4.FIFO/simulation/modelsim/dump.vcd
$date
	Tue Jan 19 12:58:00 2021
$end
$version
	ModelSim Version 10.5b
$end
$timescale
	1ps
$end

$scope module testbench $end
$var reg 1 ! clk $end
$var reg 1 " rst $end
$var reg 32 # data_in [31:0] $end
$var reg 1 $ wr_en $end
$var reg 1 % rd_en $end
$var wire 1 & data_out [31] $end
$var wire 1 ' data_out [30] $end
$var wire 1 ( data_out [29] $end
$var wire 1 ) data_out [28] $end
$var wire 1 * data_out [27] $end
$var wire 1 + data_out [26] $end
$var wire 1 , data_out [25] $end
$var wire 1 - data_out [24] $end
$var wire 1 . data_out [23] $end
$var wire 1 / data_out [22] $end
$var wire 1 0 data_out [21] $end
$var wire 1 1 data_out [20] $end
$var wire 1 2 data_out [19] $end
$var wire 1 3 data_out [18] $end
$var wire 1 4 data_out [17] $end
$var wire 1 5 data_out [16] $end
$var wire 1 6 data_out [15] $end
$var wire 1 7 data_out [14] $end
$var wire 1 8 data_out [13] $end
$var wire 1 9 data_out [12] $end
$var wire 1 : data_out [11] $end
$var wire 1 ; data_out [10] $end
$var wire 1 < data_out [9] $end
$var wire 1 = data_out [8] $end
$var wire 1 > data_out [7] $end
$var wire 1 ? data_out [6] $end
$var wire 1 @ data_out [5] $end
$var wire 1 A data_out [4] $end
$var wire 1 B data_out [3] $end
$var wire 1 C data_out [2] $end
$var wire 1 D data_out [1] $end
$var wire 1 E data_out [0] $end
$var wire 1 F empty $end
$var wire 1 G full $end
$var wire 1 H fifo_count [3] $end
$var wire 1 I fifo_count [2] $end
$var wire 1 J fifo_count [1] $end
$var wire 1 K fifo_count [0] $end
$var wire 1 L wr_ptr [2] $end
$var wire 1 M wr_ptr [1] $end
$var wire 1 N wr_ptr [0] $end
$var wire 1 O rd_ptr [2] $end
$var wire 1 P rd_ptr [1] $end
$var wire 1 Q rd_ptr [0] $end
$var wire 1 R fifo_ram_0 [7] $end
$var wire 1 S fifo_ram_0 [6] $end
$var wire 1 T fifo_ram_0 [5] $end
$var wire 1 U fifo_ram_0 [4] $end
$var wire 1 V fifo_ram_0 [3] $end
$var wire 1 W fifo_ram_0 [2] $end
$var wire 1 X fifo_ram_0 [1] $end
$var wire 1 Y fifo_ram_0 [0] $end
$var wire 1 Z fifo_ram_1 [7] $end
$var wire 1 [ fifo_ram_1 [6] $end
$var wire 1 \ fifo_ram_1 [5] $end
$var wire 1 ] fifo_ram_1 [4] $end
$var wire 1 ^ fifo_ram_1 [3] $end
$var wire 1 _ fifo_ram_1 [2] $end
$var wire 1 ` fifo_ram_1 [1] $end
$var wire 1 a fifo_ram_1 [0] $end
$var wire 1 b fifo_ram_2 [7] $end
$var wire 1 c fifo_ram_2 [6] $end
$var wire 1 d fifo_ram_2 [5] $end
$var wire 1 e fifo_ram_2 [4] $end
$var wire 1 f fifo_ram_2 [3] $end
$var wire 1 g fifo_ram_2 [2] $end
$var wire 1 h fifo_ram_2 [1] $end
$var wire 1 i fifo_ram_2 [0] $end
$var wire 1 j fifo_ram_3 [7] $end
$var wire 1 k fifo_ram_3 [6] $end
$var wire 1 l fifo_ram_3 [5] $end
$var wire 1 m fifo_ram_3 [4] $end
$var wire 1 n fifo_ram_3 [3] $end
$var wire 1 o fifo_ram_3 [2] $end
$var wire 1 p fifo_ram_3 [1] $end
$var wire 1 q fifo_ram_3 [0] $end
$var wire 1 r fifo_ram_4 [7] $end
$var wire 1 s fifo_ram_4 [6] $end
$var wire 1 t fifo_ram_4 [5] $end
$var wire 1 u fifo_ram_4 [4] $end
$var wire 1 v fifo_ram_4 [3] $end
$var wire 1 w fifo_ram_4 [2] $end
$var wire 1 x fifo_ram_4 [1] $end
$var wire 1 y fifo_ram_4 [0] $end
$var wire 1 z fifo_ram_5 [7] $end
$var wire 1 { fifo_ram_5 [6] $end
$var wire 1 | fifo_ram_5 [5] $end
$var wire 1 } fifo_ram_5 [4] $end
$var wire 1 ~ fifo_ram_5 [3] $end
$var wire 1 !! fifo_ram_5 [2] $end
$var wire 1 "! fifo_ram_5 [1] $end
$var wire 1 #! fifo_ram_5 [0] $end
$var wire 1 $! fifo_ram_6 [7] $end
$var wire 1 %! fifo_ram_6 [6] $end
$var wire 1 &! fifo_ram_6 [5] $end
$var wire 1 '! fifo_ram_6 [4] $end
$var wire 1 (! fifo_ram_6 [3] $end
$var wire 1 )! fifo_ram_6 [2] $end
$var wire 1 *! fifo_ram_6 [1] $end
$var wire 1 +! fifo_ram_6 [0] $end
$var wire 1 ,! fifo_ram_7 [7] $end
$var wire 1 -! fifo_ram_7 [6] $end
$var wire 1 .! fifo_ram_7 [5] $end
$var wire 1 /! fifo_ram_7 [4] $end
$var wire 1 0! fifo_ram_7 [3] $end
$var wire 1 1! fifo_ram_7 [2] $end
$var wire 1 2! fifo_ram_7 [1] $end
$var wire 1 3! fifo_ram_7 [0] $end

$scope task display_the_values $end
$var reg 4 4! statement_number [3:0] $end
$var reg 1 5! clk_expected $end
$var reg 1 6! rst_expected $end
$var reg 32 7! data_in_expected [31:0] $end
$var reg 1 8! wr_en_expected $end
$var reg 1 9! rd_en_expected $end
$var reg 32 :! data_out_expected [31:0] $end
$var reg 1 ;! empty_expected $end
$var reg 1 <! full_expected $end
$var reg 4 =! fifo_count_expected [3:0] $end
$var reg 3 >! wr_ptr_expected [2:0] $end
$var reg 3 ?! rd_ptr_expected [2:0] $end
$var reg 1 @! clk_actual $end
$var reg 1 A! rst_actual $end
$var reg 32 B! data_in_actual [31:0] $end
$var reg 1 C! wr_en_actual $end
$var reg 1 D! rd_en_actual $end
$var reg 32 E! data_out_actual [31:0] $end
$var reg 1 F! empty_actual $end
$var reg 1 G! full_actual $end
$var reg 4 H! fifo_count_actual [3:0] $end
$var reg 3 I! wr_ptr_actual [2:0] $end
$var reg 3 J! rd_ptr_actual [2:0] $end
$upscope $end
$upscope $end
$enddefinitions $end
#0
$dumpvars
1!
0"
b1 #
1$
0%
bx 4!
x5!
x6!
bx 7!
x8!
x9!
bx :!
x;!
x<!
bx =!
bx >!
bx ?!
x@!
xA!
bx B!
xC!
xD!
bx E!
xF!
xG!
bx H!
bx I!
bx J!
xE
xD
xC
xB
xA
x@
x?
x>
x=
x<
x;
x:
x9
x8
x7
x6
x5
x4
x3
x2
x1
x0
x/
x.
x-
x,
x+
x*
x)
x(
x'
x&
0F
0G
1K
0J
0I
0H
1N
0M
0L
0Q
0P
0O
1Y
0X
0W
0V
0U
0T
0S
0R
xa
x`
x_
x^
x]
x\
x[
xZ
xi
xh
xg
xf
xe
xd
xc
xb
xq
xp
xo
xn
xm
xl
xk
xj
xy
xx
xw
xv
xu
xt
xs
xr
x#!
x"!
x!!
x~
x}
x|
x{
xz
x+!
x*!
x)!
x(!
x'!
x&!
x%!
x$!
x3!
x2!
x1!
x0!
x/!
x.!
x-!
x,!
$end
#1000
1%
#50000
0!
#100000
1!
1Q
0N
1M
1E
0D
0C
0B
0A
0@
0?
0>
0=
0<
0;
0:
09
08
07
06
05
04
03
02
01
00
0/
0.
0-
0,
0+
0*
0)
0(
0'
0&
1a
0`
0_
0^
0]
0\
0[
0Z
#101000
b1 4!
15!
06!
b1 7!
18!
19!
b1 :!
0;!
0<!
b1 =!
b10 >!
b1 ?!
1@!
0A!
b1 B!
1C!
1D!
b1 E!
0F!
0G!
b1 H!
b10 I!
b1 J!
#150000
0!
#151000
b10010 #
#200000
1!
0Q
1P
1N
0i
1h
0g
0f
1e
0d
0c
0b
#201000
b10 4!
b10010 7!
b11 >!
b10 ?!
b10010 B!
b11 I!
b10 J!
#250000
0!
#251000
b1011101 #
#300000
1!
1Q
0N
0M
1L
0E
1D
1A
1q
0p
1o
1n
1m
0l
1k
0j
#301000
b11 4!
b1011101 7!
b10010 :!
b100 >!
b11 ?!
b1011101 B!
b10010 E!
b100 I!
b11 J!
#350000
0!
#351000
b110010 #
#400000
1!
0Q
0P
1O
1N
1E
0D
1C
1B
1?
0y
1x
0w
0v
1u
1t
0s
0r
#401000
b100 4!
b110010 7!
b1011101 :!
b101 >!
b100 ?!
b110010 B!
b1011101 E!
b101 I!
b100 J!
#450000
0!
#451000
b10000000 #
#500000
1!
1Q
0N
1M
0E
1D
0C
0B
1@
0?
0#!
0"!
0!!
0~
0}
0|
0{
1z
#501000
b101 4!
b10000000 7!
b110010 :!
b110 >!
b101 ?!
b10000000 B!
b110010 E!
b110 I!
b101 J!
#550000
0!
#551000
b10110100 #
#600000
1!
0Q
1P
1N
0D
0A
0@
1>
0+!
0*!
1)!
0(!
1'!
1&!
0%!
1$!
#601000
b110 4!
b10110100 7!
b10000000 :!
b111 >!
b110 ?!
b10110100 B!
b10000000 E!
b111 I!
b110 J!
#650000
0!
#700000
1!
1Q
0N
0M
0L
1C
1A
1@
03!
02!
11!
00!
1/!
1.!
0-!
1,!
